{
    "forms": [
        {
            "_id": "_design/forms",
            "filters": {
                "byMandator": "function (doc, req) { return (doc.mandatorId === req.query.mandatorId);}"
            }
        },
        {
            "_id": "250b147c-6717-40ca-bf9d-61be01266420",
            "name": "person",
            "label": "Persönliche Daten",
            "style": {},
            "elements": [
                {
                    "type": "group",
                    "name": "name",
                    "label": "Name",
                    "style": {},
                    "elements": [
                        {
                            "label": "Vorname",
                            "name": "firstName",
                            "required": true,
                            "inline": true,
                            "value": "X"
                        },
                        {
                            "label": "Nachname",
                            "name": "lastName",
                            "required": false,
                            "inline": true
                        }
                    ]
                },
                {
                    "type": "group",
                    "name": "address",
                    "label": "Adresse",
                    "style": {},
                    "elements": [
                        {
                            "label": "PLZ",
                            "name": "plz",
                            "required": true,
                            "inline": false,
                            "value": "28195",
                            "autofills": [
                                {
                                    "field": "ort"
                                },
                                {
                                    "field": "strasse"
                                }
                            ]
                        },
                        {
                            "label": "Ort",
                            "name": "ort",
                            "required": true,
                            "inline": false
                        },
                        {
                            "label": "Straße",
                            "name": "strasse",
                            "required": true,
                            "inline": false
                        },
                        {
                            "label": "Nummer",
                            "name": "hausnr",
                            "required": true,
                            "inline": false
                        }
                    ]
                },
                {
                    "type": "group",
                    "name": "agb",
                    "style": {
                        "width": "100%"
                    },
                    "elements": [
                        {
                            "label": "Ich akzeptiere die AGBs",
                            "name": "tc",
                            "control": {
                                "as": "input"
                            },
                            "type": "checkbox",
                            "required": true
                        }
                    ]
                }
            ],
            "mandatorId": "4e32e63b-d8f7-43fb-b0e4-bbf8a407ff28"
        },
        {
            "_id": "66e283399461e981a6c29555388b0491",
            "name": "person2",
            "label": "Barbaras Data",
            "style": {},
            "elements": [
                {
                    "type": "group",
                    "name": "name",
                    "label": "Name",
                    "style": {},
                    "elements": [
                        {
                            "label": "First name",
                            "name": "firstName",
                            "required": true,
                            "inline": true,
                            "value": "X"
                        },
                        {
                            "label": "Last name",
                            "name": "lastName",
                            "required": false,
                            "inline": true
                        }
                    ]
                },
                {
                    "type": "group",
                    "name": "address",
                    "label": "Address",
                    "style": {},
                    "elements": [
                        {
                            "label": "ZIP",
                            "name": "plz",
                            "required": true,
                            "inline": false,
                            "value": "28195",
                            "autofills": [
                                {
                                    "field": "ort"
                                },
                                {
                                    "field": "strasse"
                                }
                            ]
                        },
                        {
                            "label": "City",
                            "name": "ort",
                            "required": true,
                            "inline": false
                        },
                        {
                            "label": "Street",
                            "name": "strasse",
                            "required": true,
                            "inline": false
                        },
                        {
                            "label": "Nr.",
                            "name": "hausnr",
                            "required": true,
                            "inline": false
                        }
                    ]
                },
                {
                    "type": "group",
                    "name": "agb",
                    "style": {
                        "width": "100%"
                    },
                    "elements": [
                        {
                            "label": "I accept the terms and conditions",
                            "name": "tc",
                            "control": {
                                "as": "input"
                            },
                            "type": "checkbox",
                            "required": true
                        }
                    ]
                }
            ],
            "mandatorId": "cb3a488f-1d71-46be-b576-83e2c214c223"
        }
    ],
    "formdata": [
        {
            "_id": "_design/formdata",
            "filters": {
                "byMandator": "function (doc, req) { return doc.mandatorId === req.query.mandatorId && (!doc.permissions || doc.permissions.filter(function (p) { return !req.query.groupIds || req.query.groupIds.indexOf(p.groupId) > -1 }).length > 0) }"
            }
        }
    ]
}